%YAML 1.1
%TAG !u! tag:unity3d.com,2011:
--- !u!74 &7400000
AnimationClip:
  m_ObjectHideFlags: 0
  m_CorrespondingSourceObject: {fileID: 0}
  m_PrefabInstance: {fileID: 0}
  m_PrefabAsset: {fileID: 0}
  m_Name: RatRun
  serializedVersion: 6
  m_Legacy: 0
  m_Compressed: 0
  m_UseHighQualityCurve: 1
  m_RotationCurves: []
  m_CompressedRotationCurves: []
  m_EulerCurves: []
  m_PositionCurves: []
  m_ScaleCurves: []
  m_FloatCurves: []
  m_PPtrCurves:
  - curve:
    - time: 0
      value: {fileID: 4965689159672759991, guid: d71eae9e8b31ac14297111030974f258,
        type: 3}
    - time: 0.083333336
      value: {fileID: -4467987121264972517, guid: d71eae9e8b31ac14297111030974f258,
        type: 3}
    - time: 0.16666667
      value: {fileID: -7246414478841413239, guid: d71eae9e8b31ac14297111030974f258,
        type: 3}
    - time: 0.25
      value: {fileID: 3531449853448586312, guid: d71eae9e8b31ac14297111030974f258,
        type: 3}
    - time: 0.33333334
      value: {fileID: 1441118716899940045, guid: d71eae9e8b31ac14297111030974f258,
        type: 3}
    - time: 0.41666666
      value: {fileID: -6751472738912771507, guid: d71eae9e8b31ac14297111030974f258,
        type: 3}
    - time: 0.5
      value: {fileID: -7187331030101352706, guid: d71eae9e8b31ac14297111030974f258,
        type: 3}
    - time: 0.5833333
      value: {fileID: 3896358327205742527, guid: d71eae9e8b31ac14297111030974f258,
        type: 3}
    - time: 0.6666667
      value: {fileID: -1900863274308901134, guid: d71eae9e8b31ac14297111030974f258,
        type: 3}
    - time: 0.75
      value: {fileID: 4232707342950588469, guid: d71eae9e8b31ac14297111030974f258,
        type: 3}
    - time: 0.8333333
      value: {fileID: -677245527489409173, guid: d71eae9e8b31ac14297111030974f258,
        type: 3}
    - time: 0.9166667
      value: {fileID: 8980799600059441987, guid: d71eae9e8b31ac14297111030974f258,
        type: 3}
    - time: 1
      value: {fileID: -4202424143719362600, guid: d71eae9e8b31ac14297111030974f258,
        type: 3}
    - time: 1.0833334
      value: {fileID: 6117135353142099518, guid: d71eae9e8b31ac14297111030974f258,
        type: 3}
    - time: 1.1666666
      value: {fileID: 4593299838488666833, guid: d71eae9e8b31ac14297111030974f258,
        type: 3}
    - time: 1.25
      value: {fileID: -2364360940259168731, guid: d71eae9e8b31ac14297111030974f258,
        type: 3}
    - time: 1.3333334
      value: {fileID: 6516033573593948032, guid: d71eae9e8b31ac14297111030974f258,
        type: 3}
    - time: 1.4166666
      value: {fileID: 5569665031330512176, guid: d71eae9e8b31ac14297111030974f258,
        type: 3}
    - time: 1.5
      value: {fileID: 6155095265206648574, guid: d71eae9e8b31ac14297111030974f258,
        type: 3}
    - time: 1.5833334
      value: {fileID: 8737893768938624633, guid: d71eae9e8b31ac14297111030974f258,
        type: 3}
    - time: 1.6666666
      value: {fileID: -1588472232946210656, guid: d71eae9e8b31ac14297111030974f258,
        type: 3}
    - time: 1.75
      value: {fileID: -6044168023228031750, guid: d71eae9e8b31ac14297111030974f258,
        type: 3}
    - time: 1.8333334
      value: {fileID: -4846681419580459449, guid: d71eae9e8b31ac14297111030974f258,
        type: 3}
    - time: 1.9166666
      value: {fileID: 4804982863392085894, guid: d71eae9e8b31ac14297111030974f258,
        type: 3}
    - time: 2
      value: {fileID: 4635506776851133534, guid: d71eae9e8b31ac14297111030974f258,
        type: 3}
    - time: 2.0833333
      value: {fileID: 777086009287856914, guid: d71eae9e8b31ac14297111030974f258,
        type: 3}
    - time: 2.1666667
      value: {fileID: 2347398591979123382, guid: d71eae9e8b31ac14297111030974f258,
        type: 3}
    - time: 2.25
      value: {fileID: 3090720092376891675, guid: d71eae9e8b31ac14297111030974f258,
        type: 3}
    - time: 2.3333333
      value: {fileID: -2991566191916067858, guid: d71eae9e8b31ac14297111030974f258,
        type: 3}
    - time: 2.4166667
      value: {fileID: -3372772369001796988, guid: d71eae9e8b31ac14297111030974f258,
        type: 3}
    attribute: m_Sprite
    path: 
    classID: 212
    script: {fileID: 0}
  m_SampleRate: 12
  m_WrapMode: 0
  m_Bounds:
    m_Center: {x: 0, y: 0, z: 0}
    m_Extent: {x: 0, y: 0, z: 0}
  m_ClipBindingConstant:
    genericBindings:
    - serializedVersion: 2
      path: 0
      attribute: 0
      script: {fileID: 0}
      typeID: 212
      customType: 23
      isPPtrCurve: 1
    pptrCurveMapping:
    - {fileID: 4965689159672759991, guid: d71eae9e8b31ac14297111030974f258, type: 3}
    - {fileID: -4467987121264972517, guid: d71eae9e8b31ac14297111030974f258, type: 3}
    - {fileID: -7246414478841413239, guid: d71eae9e8b31ac14297111030974f258, type: 3}
    - {fileID: 3531449853448586312, guid: d71eae9e8b31ac14297111030974f258, type: 3}
    - {fileID: 1441118716899940045, guid: d71eae9e8b31ac14297111030974f258, type: 3}
    - {fileID: -6751472738912771507, guid: d71eae9e8b31ac14297111030974f258, type: 3}
    - {fileID: -7187331030101352706, guid: d71eae9e8b31ac14297111030974f258, type: 3}
    - {fileID: 3896358327205742527, guid: d71eae9e8b31ac14297111030974f258, type: 3}
    - {fileID: -1900863274308901134, guid: d71eae9e8b31ac14297111030974f258, type: 3}
    - {fileID: 4232707342950588469, guid: d71eae9e8b31ac14297111030974f258, type: 3}
    - {fileID: -677245527489409173, guid: d71eae9e8b31ac14297111030974f258, type: 3}
    - {fileID: 8980799600059441987, guid: d71eae9e8b31ac14297111030974f258, type: 3}
    - {fileID: -4202424143719362600, guid: d71eae9e8b31ac14297111030974f258, type: 3}
    - {fileID: 6117135353142099518, guid: d71eae9e8b31ac14297111030974f258, type: 3}
    - {fileID: 4593299838488666833, guid: d71eae9e8b31ac14297111030974f258, type: 3}
    - {fileID: -2364360940259168731, guid: d71eae9e8b31ac14297111030974f258, type: 3}
    - {fileID: 6516033573593948032, guid: d71eae9e8b31ac14297111030974f258, type: 3}
    - {fileID: 5569665031330512176, guid: d71eae9e8b31ac14297111030974f258, type: 3}
    - {fileID: 6155095265206648574, guid: d71eae9e8b31ac14297111030974f258, type: 3}
    - {fileID: 8737893768938624633, guid: d71eae9e8b31ac14297111030974f258, type: 3}
    - {fileID: -1588472232946210656, guid: d71eae9e8b31ac14297111030974f258, type: 3}
    - {fileID: -6044168023228031750, guid: d71eae9e8b31ac14297111030974f258, type: 3}
    - {fileID: -4846681419580459449, guid: d71eae9e8b31ac14297111030974f258, type: 3}
    - {fileID: 4804982863392085894, guid: d71eae9e8b31ac14297111030974f258, type: 3}
    - {fileID: 4635506776851133534, guid: d71eae9e8b31ac14297111030974f258, type: 3}
    - {fileID: 777086009287856914, guid: d71eae9e8b31ac14297111030974f258, type: 3}
    - {fileID: 2347398591979123382, guid: d71eae9e8b31ac14297111030974f258, type: 3}
    - {fileID: 3090720092376891675, guid: d71eae9e8b31ac14297111030974f258, type: 3}
    - {fileID: -2991566191916067858, guid: d71eae9e8b31ac14297111030974f258, type: 3}
    - {fileID: -3372772369001796988, guid: d71eae9e8b31ac14297111030974f258, type: 3}
  m_AnimationClipSettings:
    serializedVersion: 2
    m_AdditiveReferencePoseClip: {fileID: 0}
    m_AdditiveReferencePoseTime: 0
    m_StartTime: 0
    m_StopTime: 2.5
    m_OrientationOffsetY: 0
    m_Level: 0
    m_CycleOffset: 0
    m_HasAdditiveReferencePose: 0
    m_LoopTime: 1
    m_LoopBlend: 0
    m_LoopBlendOrientation: 0
    m_LoopBlendPositionY: 0
    m_LoopBlendPositionXZ: 0
    m_KeepOriginalOrientation: 0
    m_KeepOriginalPositionY: 1
    m_KeepOriginalPositionXZ: 0
    m_HeightFromFeet: 0
    m_Mirror: 0
  m_EditorCurves: []
  m_EulerEditorCurves: []
  m_HasGenericRootTransform: 0
  m_HasMotionFloatCurves: 0
  m_Events: []
